<svg width="17" height="12" viewBox="0 0 17 12" fill="none" xmlns="http://www.w3.org/2000/svg">
<g id="visibility">
<g id="Group 2542">
<g id="Group 2541">
<path id="Path 907" d="M8.49984 3.75001C8.05103 3.72957 7.60638 3.84395 7.22316 4.07843C6.83993 4.31291 6.53567 4.65675 6.34957 5.06567C6.16347 5.47458 6.10405 5.92984 6.17896 6.37283C6.25387 6.81581 6.45967 7.22622 6.76988 7.55121C7.08008 7.8762 7.48047 8.10088 7.91948 8.19632C8.3585 8.29177 8.81603 8.25359 9.23317 8.08672C9.6503 7.91985 10.0079 7.63192 10.26 7.26002C10.512 6.88812 10.647 6.44928 10.6475 6.00001C10.6603 5.41706 10.4414 4.8528 10.0388 4.43101C9.6362 4.00922 9.08275 3.76432 8.49984 3.75001Z" fill="#7457D0"/>
<path id="Path 908" d="M8.5 0.375C6.77052 0.39823 5.08944 0.949434 3.68197 1.95477C2.27451 2.9601 1.20789 4.37154 0.625 6C1.20789 7.62846 2.27451 9.0399 3.68197 10.0452C5.08944 11.0506 6.77052 11.6018 8.5 11.625C10.2296 11.6023 11.911 11.0513 13.3185 10.0459C14.7261 9.04053 15.7926 7.62877 16.375 6C15.7926 4.37123 14.7261 2.95947 13.3185 1.95407C11.911 0.948659 10.2296 0.397674 8.5 0.375ZM8.5 9.75019C7.53512 9.70596 6.62441 9.29154 5.95723 8.59308C5.29006 7.89463 4.91777 6.9659 4.91777 6C4.91777 5.0341 5.29006 4.10537 5.95723 3.40692C6.62441 2.70846 7.53512 2.29404 8.5 2.24981C9.46377 2.29554 10.3729 2.71059 11.0388 3.40882C11.7047 4.10706 12.0762 5.03486 12.0762 5.99972C12.0762 6.96457 11.7047 7.89238 11.0388 8.59061C10.3729 9.28885 9.46377 9.70446 8.5 9.75019Z" fill="#7457D0"/>
</g>
</g>
</g>
</svg>
