<svg xmlns="http://www.w3.org/2000/svg" width="15" height="15" viewBox="0 0 15 15">
  <path id="ic_check_box_outline_blank_24px" d="M16.333,4.667V16.333H4.667V4.667H16.333m0-1.667H4.667A1.672,1.672,0,0,0,3,4.667V16.333A1.672,1.672,0,0,0,4.667,18H16.333A1.672,1.672,0,0,0,18,16.333V4.667A1.672,1.672,0,0,0,16.333,3Z" transform="translate(-3 -3)" fill="#c1c1c1"/>
</svg>
