<svg width="32" height="32" viewBox="0 0 32 32" fill="none" xmlns="http://www.w3.org/2000/svg">
<g id="empty">
<path id="Vector" fill-rule="evenodd" clip-rule="evenodd" d="M2.00007 19.2731L8.59613 12.5159C8.85433 12.2513 9.20852 12.102 9.57825 12.102H22.4218C22.7915 12.102 23.1457 12.2513 23.4039 12.5159L30 19.2731V26.1791C30 27.3919 29.0168 28.3751 27.804 28.3751H4.19604C2.98321 28.3751 2 27.3919 2 26.1791L2.00007 19.2731ZM4.05884 18.7215L9.41167 13.2054H22.5881L27.9409 18.7215H21.078V19.8365C21.078 21.201 19.9719 22.3071 18.6075 22.3071H13.3918C12.0274 22.3071 10.9213 21.201 10.9213 19.8365V18.7215H4.05884ZM16.5492 9.34373C16.5492 9.64836 16.3034 9.89531 16.0001 9.89531C15.6969 9.89531 15.4511 9.64836 15.4511 9.34373V3.55158C15.4511 3.24695 15.6969 3 16.0001 3C16.3034 3 16.5492 3.24695 16.5492 3.55158V9.34373ZM20.0993 9.84091C20.0207 10.1351 19.7198 10.3099 19.4268 10.231C19.134 10.1521 18.9601 9.84959 19.0386 9.55537L20.5307 3.96046C20.6092 3.66623 20.9103 3.49164 21.2031 3.57039C21.496 3.64929 21.6698 3.95178 21.5913 4.246L20.0993 9.84091ZM13.0814 9.55537C13.1599 9.8496 12.986 10.1521 12.6932 10.231C12.4003 10.3099 12.0992 10.1351 12.0207 9.84091L10.5288 4.246C10.4503 3.95177 10.6241 3.64929 10.917 3.57039C11.2098 3.49163 11.5109 3.66624 11.5893 3.96046L13.0814 9.55537Z" fill="#848A93"/>
</g>
</svg>
