<svg xmlns="http://www.w3.org/2000/svg" width="4" height="16" viewBox="0 0 4 16">
  <path id="Options_icon" data-name="Options icon" d="M2,0A2,2,0,1,0,4,2,2.006,2.006,0,0,0,2,0ZM14,0a2,2,0,1,0,2,2A2.006,2.006,0,0,0,14,0ZM8,0a2,2,0,1,0,2,2A2.006,2.006,0,0,0,8,0Z" transform="translate(4) rotate(90)"/>
</svg>
