<svg xmlns="http://www.w3.org/2000/svg" width="7.41" height="12" viewBox="0 0 7.41 12">
  <path id="ic_chevron_left_24px" d="M15.41,7.41,14,6,8,12l6,6,1.41-1.41L10.83,12Z" transform="translate(-8 -6)" fill="#7b797a"/>
</svg>
