<svg xmlns="http://www.w3.org/2000/svg" width="24" height="24" viewBox="0 0 24 24">
  <g id="Group_2938" data-name="Group 2938" transform="translate(-448 -1984)">
    <rect id="Rectangle_1744" data-name="Rectangle 1744" width="24" height="24" transform="translate(448 1984)" fill="#ffd800" opacity="0"/>
    <g id="journey_icon" data-name="journey icon" transform="translate(452.5 1985.5)">
      <path id="Path_304" data-name="Path 304" d="M56.317,34.282h5.6a.509.509,0,1,0,0-1.019l-1.291-.117a.477.477,0,0,1-.43-.449c0-.655-.164-1-.758-1h-.646c-.6,0-.758.342-.758,1a.477.477,0,0,1-.43.449l-1.289.119A.507.507,0,1,0,56.317,34.282ZM59.133,32.1a.384.384,0,1,1-.368.384.391.391,0,0,1,.107-.272A.359.359,0,0,1,59.133,32.1Z" transform="translate(-53.542 -31.7)" fill="#fff"/>
      <path id="Path_305" data-name="Path 305" d="M65.538,53.142a1.265,1.265,0,0,0-1.246-1.282h-.2V63.37a1.87,1.87,0,0,1-.513,1.3,1.717,1.717,0,0,1-1.242.536H54.36v.223a1.266,1.266,0,0,0,1.238,1.29h8.323a1.8,1.8,0,0,0,1.623-1.687Z" transform="translate(-52.387 -47.652)" fill="#fff"/>
      <path id="Path_306" data-name="Path 306" d="M53.726,42a.9.9,0,0,1-.176.482.711.711,0,0,1-.558.238h-5.8a.707.707,0,0,1-.558-.238.914.914,0,0,1-.18-.482h-.712A1.266,1.266,0,0,0,44.5,43.292V55.573a1.266,1.266,0,0,0,1.238,1.292h8.707a1.266,1.266,0,0,0,1.238-1.292V43.292a1.319,1.319,0,0,0-.362-.914A1.211,1.211,0,0,0,54.446,42ZM47.2,54.16a.627.627,0,1,1,.6-.626.63.63,0,0,1-.173.446.578.578,0,0,1-.427.18Zm0-2.664a.6.6,0,0,1-.555-.389.646.646,0,0,1,.135-.684.582.582,0,0,1,.657-.129.647.647,0,0,1,.187,1.025A.577.577,0,0,1,47.2,51.5Zm0-2.664a.627.627,0,1,1,.6-.626.63.63,0,0,1-.173.446A.578.578,0,0,1,47.2,48.832Zm0-2.657a.627.627,0,1,1,.6-.626.63.63,0,0,1-.173.446A.578.578,0,0,1,47.2,46.175ZM48.67,45.2l4.734-.008V45.9H48.678Zm0,2.659H53.4v.708H48.678Zm0,2.664H53.4v.7H48.68ZM53.4,53.9H48.68v-.712h4.73Z" transform="translate(-44.5 -39.85)" fill="#fff"/>
      <path id="Path_307" data-name="Path 307" d="M74.754,62.38a1.266,1.266,0,0,0-1.238-1.29H73.3V72.607a1.8,1.8,0,0,1-1.755,1.835H63.57v.223a1.268,1.268,0,0,0,1.24,1.29h8.321a1.794,1.794,0,0,0,1.623-1.689Z" transform="translate(-59.754 -54.955)" fill="#fff"/>
    </g>
  </g>
</svg>
