<svg xmlns="http://www.w3.org/2000/svg" width="15" height="28" viewBox="0 0 15 28">
  <path id="Subtraction_1" data-name="Subtraction 1" d="M12.842,28H2.129A2.368,2.368,0,0,1,0,25.46V2.54A2.368,2.368,0,0,1,2.129,0L12.842.013A2.365,2.365,0,0,1,14.985,2.54V25.454A2.373,2.373,0,0,1,12.842,28ZM7.183,24.63a.952.952,0,1,0,.952.953.958.958,0,0,0-.952-.953ZM2.129,5.091V22.909H12.842V5.091ZM4.7,2.842a.474.474,0,1,0,0,.947h5.715a.474.474,0,1,0,0-.947Z" transform="translate(0.007)" fill="#848a93"/>
</svg>
