<svg width="20" height="20" viewBox="0 0 20 20" fill="none" xmlns="http://www.w3.org/2000/svg">
<g id="radio-unselected">
<path id="Subtraction 1" d="M10 19C8.21997 19 6.47991 18.4722 4.99987 17.4832C3.51983 16.4943 2.36628 15.0887 1.68509 13.4442C1.0039 11.7996 0.82567 9.99002 1.17294 8.24419C1.5202 6.49836 2.37737 4.89472 3.63604 3.63604C4.89472 2.37737 6.49836 1.5202 8.24419 1.17294C9.99002 0.82567 11.7996 1.0039 13.4442 1.68509C15.0887 2.36628 16.4943 3.51983 17.4832 4.99987C18.4722 6.47991 19 8.21997 19 10C18.9974 12.3861 18.0483 14.6738 16.361 16.361C14.6738 18.0483 12.3861 18.9974 10 19ZM5.5 9.432C5.32244 9.43236 5.14895 9.48522 5.00136 9.58395C4.85378 9.68268 4.7387 9.82286 4.6706 9.98685C4.6025 10.1508 4.58444 10.3313 4.61867 10.5055C4.65291 10.6798 4.73792 10.84 4.863 10.966L7.541 13.637C7.6246 13.7208 7.72389 13.7872 7.83319 13.8325C7.9425 13.8779 8.05967 13.9012 8.178 13.9012C8.29634 13.9012 8.41351 13.8779 8.52281 13.8325C8.63212 13.7872 8.73141 13.7208 8.815 13.637L15.134 7.337C15.2928 7.16627 15.3792 6.94055 15.3749 6.70739C15.3706 6.47423 15.276 6.25184 15.111 6.08707C14.9459 5.9223 14.7234 5.82802 14.4902 5.82409C14.2571 5.82016 14.0315 5.90689 13.861 6.066L8.179 11.731L6.138 9.695C6.05419 9.61135 5.95469 9.54506 5.84521 9.49993C5.73573 9.45479 5.61842 9.43171 5.5 9.432Z" fill="white"/>
</g>
</svg>
