<svg width="22" height="22" viewBox="0 0 22 22" fill="none" xmlns="http://www.w3.org/2000/svg">
<g id="paste">
<g id="Group 2958">
<g id="Group 2957">
<path id="Path 917" d="M15.62 0.5H1.34C1.11722 0.5 0.903561 0.5885 0.74603 0.74603C0.5885 0.903561 0.5 1.11722 0.5 1.34L0.5 15.62C0.5 15.8428 0.5885 16.0564 0.74603 16.214C0.903561 16.3715 1.11722 16.46 1.34 16.46H15.62C15.8428 16.46 16.0564 16.3715 16.214 16.214C16.3715 16.0564 16.46 15.8428 16.46 15.62V1.34C16.46 1.11722 16.3715 0.903561 16.214 0.74603C16.0564 0.5885 15.8428 0.5 15.62 0.5Z" fill="white"/>
</g>
</g>
<g id="Group 2960">
<g id="Group 2959">
<path id="Path 918" d="M19.82 17.72V19.82H17.72V21.5H20.66C20.8828 21.5 21.0964 21.4115 21.254 21.254C21.4115 21.0964 21.5 20.8828 21.5 20.66V17.72H19.82Z" fill="white"/>
</g>
</g>
<g id="Group 2962">
<g id="Group 2961">
<path id="Rectangle 2243" d="M15.7798 19.8201H11.2603V21.5001H15.7798V19.8201Z" fill="white"/>
</g>
</g>
<g id="Group 2964">
<g id="Group 2963">
<path id="Path 919" d="M7.22004 19.82V17.72H5.54004V20.66C5.54004 20.8828 5.62854 21.0964 5.78607 21.254C5.9436 21.4115 6.15726 21.5 6.38004 21.5H9.32004V19.82H7.22004Z" fill="white"/>
</g>
</g>
<g id="Group 2966">
<g id="Group 2965">
<path id="Path 920" d="M20.66 5.54004H17.72V7.22004H19.82V9.32004H21.5V6.38004C21.5 6.15726 21.4115 5.9436 21.254 5.78607C21.0964 5.62854 20.8828 5.54004 20.66 5.54004Z" fill="white"/>
</g>
</g>
<g id="Group 2968">
<g id="Group 2967">
<path id="Rectangle 2244" d="M21.4999 11.2603H19.8199V15.7798H21.4999V11.2603Z" fill="white"/>
</g>
</g>
</g>
</svg>
